<svg xmlns="http://www.w3.org/2000/svg" width="37.999" height="37.999" viewBox="0 0 37.999 37.999">
  <g id="gps" transform="translate(0.5 0.5)">
    <g id="Group_4203" data-name="Group 4203" transform="translate(13.104 13.104)">
      <g id="Group_4202" data-name="Group 4202">
        <path id="Path_1075" data-name="Path 1075" d="M141.4,136a5.4,5.4,0,1,0,5.4,5.4A5.4,5.4,0,0,0,141.4,136Zm0,7.708a2.312,2.312,0,1,1,2.312-2.312A2.315,2.315,0,0,1,141.4,143.708Z" transform="translate(-136 -136)" stroke="#fff" stroke-width="1"/>
      </g>
    </g>
    <g id="Group_4205" data-name="Group 4205">
      <g id="Group_4204" data-name="Group 4204">
        <path id="Path_1076" data-name="Path 1076" d="M35.457,16.958H32.283A13.894,13.894,0,0,0,20.041,4.716V1.542a1.542,1.542,0,1,0-3.083,0V4.716A13.894,13.894,0,0,0,4.716,16.958H1.542a1.542,1.542,0,1,0,0,3.083H4.716A13.894,13.894,0,0,0,16.958,32.283v3.174a1.542,1.542,0,1,0,3.083,0V32.283A13.894,13.894,0,0,0,32.283,20.041h3.174a1.542,1.542,0,1,0,0-3.083ZM18.5,29.291A10.791,10.791,0,1,1,29.291,18.5,10.8,10.8,0,0,1,18.5,29.291Z" stroke="#fff" stroke-width="1"/>
      </g>
    </g>
  </g>
</svg>
