<svg xmlns="http://www.w3.org/2000/svg" width="26.98" height="27.019" viewBox="0 0 26.98 27.019">
  <path id="Path_7820" data-name="Path 7820" d="M29.1-27.264l-10.5,2.146,7.282,9.313-4.216,2.913L15.682-23.048,9.627-12.892,5.411-15.805l7.282-9.313L2.115-27.264,3.84-32.055,13.881-28.26,13-39.911h5.289L17.407-28.26l10.079-3.794Z" transform="translate(-2.115 39.911)" fill="#9b51e0"/>
</svg>
