<svg xmlns="http://www.w3.org/2000/svg" width="24.447" height="17.827" viewBox="0 0 24.447 17.827">
  <path id="truck" d="M21.111,6.085l3.336,4.431v5.578H22.258A3.382,3.382,0,0,1,18.9,19.429a3.151,3.151,0,0,1-2.346-.99,3.249,3.249,0,0,1-.964-2.346H8.913a3.206,3.206,0,0,1-.99,2.346,3.235,3.235,0,0,1-2.372.99,3.151,3.151,0,0,1-2.346-.99,3.249,3.249,0,0,1-.964-2.346H0V3.843a2.163,2.163,0,0,1,.651-1.59A2.164,2.164,0,0,1,2.242,1.6H17.776V6.085ZM5.552,17.761a1.692,1.692,0,0,0,1.694-1.694,1.546,1.546,0,0,0-.5-1.173,1.679,1.679,0,0,0-1.2-.469A1.6,1.6,0,0,0,3.91,16.067a1.686,1.686,0,0,0,.469,1.2A1.551,1.551,0,0,0,5.552,17.761ZM20.59,7.753H17.775v2.762h4.952ZM18.9,17.761a1.692,1.692,0,0,0,1.694-1.694,1.546,1.546,0,0,0-.5-1.173,1.679,1.679,0,0,0-1.2-.469,1.6,1.6,0,0,0-1.642,1.642,1.686,1.686,0,0,0,.469,1.2A1.551,1.551,0,0,0,18.9,17.761Z" transform="translate(0 -1.602)" fill="#9b51e0"/>
</svg>
