<svg xmlns="http://www.w3.org/2000/svg" width="25.5" height="31.5" viewBox="0 0 25.5 31.5">
  <g id="Icon_feather-file-text" data-name="Icon feather-file-text" transform="translate(-5.25 -2.25)">
    <path id="Path_994" data-name="Path 994" d="M21,3H9A3,3,0,0,0,6,6V30a3,3,0,0,0,3,3H27a3,3,0,0,0,3-3V12Z" fill="none" stroke="#9b51e0" stroke-linecap="round" stroke-linejoin="round" stroke-width="1.5"/>
    <path id="Path_995" data-name="Path 995" d="M21,3v9h9" fill="none" stroke="#9b51e0" stroke-linecap="round" stroke-linejoin="round" stroke-width="1.5"/>
    <path id="Path_996" data-name="Path 996" d="M24,19.5H12" fill="none" stroke="#9b51e0" stroke-linecap="round" stroke-linejoin="round" stroke-width="1.5"/>
    <path id="Path_997" data-name="Path 997" d="M24,25.5H12" fill="none" stroke="#9b51e0" stroke-linecap="round" stroke-linejoin="round" stroke-width="1.5"/>
    <path id="Path_998" data-name="Path 998" d="M15,13.5H12" fill="none" stroke="#9b51e0" stroke-linecap="round" stroke-linejoin="round" stroke-width="1.5"/>
  </g>
</svg>
