<svg xmlns="http://www.w3.org/2000/svg" width="24.098" height="16.944" viewBox="0 0 24.098 16.944">
  <path id="right-arrow" d="M16.227.255a.854.854,0,1,0-1.214,1.2l6.158,6.158H.85A.846.846,0,0,0,0,8.466a.855.855,0,0,0,.85.862H21.171l-6.158,6.147a.872.872,0,0,0,0,1.214.851.851,0,0,0,1.214,0l7.616-7.616a.836.836,0,0,0,0-1.2Z" transform="translate(24.098 16.944) rotate(180)" fill="#9b51e0"/>
</svg>
