<svg xmlns="http://www.w3.org/2000/svg" width="33.021" height="31.489" viewBox="0 0 33.021 31.489">
  <path id="Path_913" data-name="Path 913" d="M32.242,23.252l-10.7-.992L17.3,12.395a.857.857,0,0,0-1.574,0L11.474,22.26l-10.7.992a.857.857,0,0,0-.487,1.5l8.07,7.089L6,42.318a.857.857,0,0,0,1.274.925l9.236-5.484,9.236,5.484a.857.857,0,0,0,1.274-.925L24.658,31.839l8.07-7.089A.857.857,0,0,0,32.242,23.252Z" transform="translate(0 -11.877)" fill="#ffdc64"/>
</svg>
