<svg xmlns="http://www.w3.org/2000/svg" width="28.408" height="22.727" viewBox="0 0 28.408 22.727">
  <path id="Icon_awesome-shipping-fast" data-name="Icon awesome-shipping-fast" d="M27.7,15.625h-.71v-4.8a2.131,2.131,0,0,0-.626-1.5L21.928,4.887a2.131,2.131,0,0,0-1.5-.626H18.466V2.131A2.131,2.131,0,0,0,16.335,0H4.971A2.131,2.131,0,0,0,2.841,2.131V4.261H.355A.356.356,0,0,0,0,4.616v.71a.356.356,0,0,0,.355.355H12.429a.356.356,0,0,1,.355.355v.71a.356.356,0,0,1-.355.355H1.776a.356.356,0,0,0-.355.355v.71a.356.356,0,0,0,.355.355h9.233a.356.356,0,0,1,.355.355v.71a.356.356,0,0,1-.355.355H.355A.356.356,0,0,0,0,10.3v.71a.356.356,0,0,0,.355.355H9.588a.356.356,0,0,1,.355.355v.71a.356.356,0,0,1-.355.355H2.841v5.682a4.261,4.261,0,1,0,8.523,0h5.682a4.261,4.261,0,1,0,8.523,0H27.7a.712.712,0,0,0,.71-.71v-1.42A.712.712,0,0,0,27.7,15.625ZM7.1,20.6a2.131,2.131,0,1,1,2.131-2.131A2.131,2.131,0,0,1,7.1,20.6Zm14.2,0a2.131,2.131,0,1,1,2.131-2.131A2.131,2.131,0,0,1,21.306,20.6Zm3.551-9.233H18.466V6.392h1.958l4.434,4.434Z" fill="#1f1f41"/>
</svg>
