<svg xmlns="http://www.w3.org/2000/svg" width="24.018" height="16.677" viewBox="0 0 24.018 16.677">
  <path id="Icon_awesome-angle-down" data-name="Icon awesome-angle-down" d="M9.395,23.593.46,14.834a1.518,1.518,0,0,1,0-2.184l1.485-1.456a1.593,1.593,0,0,1,2.227,0L10.505,17.4l6.334-6.209a1.593,1.593,0,0,1,2.227,0l1.485,1.456a1.518,1.518,0,0,1,0,2.184l-8.935,8.76A1.585,1.585,0,0,1,9.395,23.593Z" transform="translate(1.504 -9.058)" fill="rgba(112,112,112,0.74)" stroke="#fff" stroke-width="3"/>
</svg>
