<svg xmlns="http://www.w3.org/2000/svg" width="26.42" height="26.42" viewBox="0 0 26.42 26.42">
  <path id="Icon_awesome-first-order-alt" data-name="Icon awesome-first-order-alt" d="M13.21.563a13.21,13.21,0,1,0,13.21,13.21A13.21,13.21,0,0,0,13.21.563Zm0,26A12.8,12.8,0,1,1,26,13.772,12.8,12.8,0,0,1,13.21,26.567Zm0-24.5a11.7,11.7,0,1,0,11.7,11.7,11.7,11.7,0,0,0-11.7-11.7Zm0,22.969A11.266,11.266,0,1,1,24.476,13.772,11.266,11.266,0,0,1,13.21,25.039Zm9.92-8.681a10.206,10.206,0,0,1-1.072,2.594L18.109,17.04l3.275,2.92A10.308,10.308,0,0,1,19.4,21.946l-2.919-3.28,1.911,3.956A10.171,10.171,0,0,1,15.8,23.7L14.35,19.52l.255,4.417a10.306,10.306,0,0,1-2.8,0l.254-4.392L10.608,23.7a10.193,10.193,0,0,1-2.591-1.076l1.914-3.96L7.008,21.949a10.326,10.326,0,0,1-1.983-1.986l3.281-2.924L4.35,18.953A10.208,10.208,0,0,1,3.277,16.36l4.146-1.444-4.38.254a10.329,10.329,0,0,1,0-2.808l4.388.254L3.282,11.168A10.212,10.212,0,0,1,4.36,8.576l3.953,1.913L5.036,7.567A10.326,10.326,0,0,1,7.022,5.584L9.939,8.862,8.03,4.911a10.2,10.2,0,0,1,2.591-1.072l1.431,4.115L11.8,3.607a10.3,10.3,0,0,1,2.8,0l-.252,4.376,1.441-4.142a10.2,10.2,0,0,1,2.59,1.074L16.477,8.863l2.915-3.274a10.287,10.287,0,0,1,1.984,1.983L18.1,10.49,22.05,8.58a10.2,10.2,0,0,1,1.076,2.591l-4.145,1.444,4.381-.253a10.314,10.314,0,0,1,0,2.806l-4.374-.253,4.14,1.443Z" transform="translate(0 -0.563)" fill="#fff"/>
</svg>
