<svg xmlns="http://www.w3.org/2000/svg" width="34.65" height="26.345" viewBox="0 0 34.65 26.345">
  <path id="Path_1086" data-name="Path 1086" d="M3507.36-11434.411l10.073,10.072,21.042-21.042" transform="translate(-3505.593 11447.148)" fill="none" stroke="#fff" stroke-width="5"/>
</svg>
