<svg xmlns="http://www.w3.org/2000/svg" width="25.096" height="25.096" viewBox="0 0 25.096 25.096">
  <g id="Group_5124" data-name="Group 5124" transform="translate(0 0)">
    <g id="Group_5123" data-name="Group 5123">
      <g id="Path_2560" data-name="Path 2560" transform="translate(-162.555 -162.556)" fill="#1f1f41">
        <path d="M 165.2409210205078 186.9013061523438 C 164.7238616943359 186.9013061523438 164.2377624511719 186.699951171875 163.8721771240234 186.3343353271484 C 163.5065307617188 185.9687194824219 163.3051910400391 185.482666015625 163.3052215576172 184.9656829833984 C 163.3052520751953 184.4486846923828 163.5066528320312 183.9625854492188 163.8722839355469 183.5969696044922 L 171.8354187011719 175.6338500976562 L 172.3657531738281 175.103515625 L 171.8354187011719 174.5731811523438 L 163.872314453125 166.610107421875 C 163.1175689697266 165.85546875 163.1175384521484 164.6274871826172 163.8722076416016 163.8726806640625 C 164.23779296875 163.5071563720703 164.7239227294922 163.3058166503906 165.2409362792969 163.3058166503906 C 165.7579345703125 163.3058166503906 166.2439727783203 163.5071411132812 166.6095123291016 163.8727111816406 L 174.5726928710938 171.8359069824219 L 175.1030120849609 172.3662261962891 L 175.6333465576172 171.8359069824219 L 183.5966949462891 163.8727416992188 C 183.9622650146484 163.5071258544922 184.4483032226562 163.3057861328125 184.96533203125 163.3057861328125 C 185.4823760986328 163.3057861328125 185.9684753417969 163.5071258544922 186.3340759277344 163.8727264404297 C 187.0886840820312 164.6275024414062 187.0886535644531 165.8554992675781 186.3339538574219 166.6100616455078 L 178.3707275390625 174.5731811523438 L 177.8403930664062 175.103515625 L 178.3707275390625 175.6338500976562 L 186.3338928222656 183.5969543457031 C 186.6995239257812 183.9625854492188 186.9008941650391 184.44873046875 186.9009246826172 184.9657592773438 C 186.9009399414062 185.4827575683594 186.6996307373047 185.9687805175781 186.3340911865234 186.3343048095703 C 185.9684448242188 186.6999206542969 185.4823303222656 186.9012908935547 184.9653015136719 186.9013061523438 C 184.4482879638672 186.9013061523438 183.9622650146484 186.6999664306641 183.5967712402344 186.3343811035156 L 175.6333465576172 178.3711547851562 L 175.1030120849609 177.8408355712891 L 174.5726928710938 178.3711700439453 L 166.6095428466797 186.3343200683594 C 166.2440032958984 186.6999816894531 165.7579803466797 186.9013061523438 165.2409210205078 186.9013061523438 Z" stroke="none"/>
        <path d="M 165.2409210205078 186.1513061523438 C 165.5576019287109 186.1513061523438 165.8552398681641 186.0280303955078 166.0792083740234 185.8039855957031 L 175.1030120849609 176.7801818847656 L 184.1271667480469 185.8041229248047 C 184.3509979248047 186.0280151367188 184.6486511230469 186.1513061523438 184.9652709960938 186.1513061523438 C 185.2819976806641 186.1512908935547 185.5797882080078 186.0279388427734 185.8037872314453 185.803955078125 C 186.0276489257812 185.5801086425781 186.1509246826172 185.2824401855469 186.1509246826172 184.9657897949219 C 186.1509094238281 184.6490631103516 186.0275421142578 184.3512573242188 185.8035736083984 184.1272888183594 L 176.7797241210938 175.103515625 L 185.8036499023438 166.0796966552734 C 186.2659149169922 165.6175079345703 186.2659149169922 164.8653259277344 185.8037414550781 164.4030609130859 C 185.5798034667969 164.1791229248047 185.2820587158203 164.0557861328125 184.96533203125 164.0557861328125 C 184.6486511230469 164.0557861328125 184.3509826660156 164.1790924072266 184.1270294189453 164.403076171875 L 175.1030120849609 173.4268798828125 L 166.0791625976562 164.4030303955078 C 165.8552703857422 164.1791229248047 165.5576019287109 164.0558166503906 165.2409362792969 164.0558166503906 C 164.9242248535156 164.0558166503906 164.6264190673828 164.1791687011719 164.4025726318359 164.4029693603516 C 163.9403076171875 164.8653259277344 163.9402923583984 165.6175079345703 164.4026336669922 166.0797882080078 L 173.4264068603516 175.103515625 L 164.4026031494141 184.1273193359375 C 164.1786193847656 184.3512878417969 164.0552520751953 184.6490478515625 164.0552215576172 184.9657287597656 C 164.0552062988281 185.2823486328125 164.1785125732422 185.5800476074219 164.4025268554688 185.8040313720703 C 164.62646484375 186.0279846191406 164.9242095947266 186.1513061523438 165.2409210205078 186.1513061523438 M 165.2409210205078 187.6513061523438 C 164.5535888671875 187.6513061523438 163.8662414550781 187.3891143798828 163.3418273925781 186.8646545410156 C 162.2929077148438 185.8158264160156 162.2930908203125 184.1154479980469 163.3419799804688 183.0666198730469 L 171.3050842285156 175.103515625 L 163.3419799804688 167.1404418945312 C 162.2931518554688 166.0917663574219 162.2930908203125 164.3913269042969 163.3418273925781 163.3424072265625 C 164.390869140625 162.2935791015625 166.0912170410156 162.2936706542969 167.1398620605469 163.3424072265625 L 175.10302734375 171.3055725097656 L 183.0663757324219 163.3424072265625 C 184.1150665283203 162.2935791015625 185.8155975341797 162.2935943603516 186.8644104003906 163.3424072265625 C 187.9130859375 164.3913269042969 187.9130859375 166.0917663574219 186.8642272949219 167.1404418945312 L 178.9010620117188 175.103515625 L 186.8642272949219 183.0666198730469 C 187.9130859375 184.1155395507812 187.9131469726562 185.8159790039062 186.8644104003906 186.8646545410156 C 185.8152465820312 187.9137268066406 184.1147766113281 187.9132995605469 183.0663757324219 186.8646545410156 L 175.10302734375 178.9014892578125 L 167.1398620605469 186.8646545410156 C 166.6156158447266 187.3890686035156 165.9282684326172 187.6513061523438 165.2409210205078 187.6513061523438 Z" stroke="none" fill="#fff"/>
      </g>
    </g>
  </g>
</svg>
