<svg id="location" xmlns="http://www.w3.org/2000/svg" width="20.225" height="25.741" viewBox="0 0 20.225 25.741">
  <path id="Path_1072" data-name="Path 1072" d="M16.972,18.193a4.6,4.6,0,1,1,4.6-4.6A4.6,4.6,0,0,1,16.972,18.193Zm0-7.355A2.758,2.758,0,1,0,19.73,13.6a2.758,2.758,0,0,0-2.758-2.758Z" transform="translate(-6.859 -3.484)" fill="#b7b7b7"/>
  <path id="Path_1073" data-name="Path 1073" d="M15.737,27.991,7.982,18.844q-.161-.206-.32-.414a10.01,10.01,0,0,1-2.037-6.067,10.112,10.112,0,1,1,20.225,0,10.006,10.006,0,0,1-2.036,6.065v0s-.275.362-.317.411ZM9.129,17.322s.215.283.264.344l6.345,7.483,6.353-7.493c.04-.051.256-.336.257-.337a8.183,8.183,0,0,0,1.665-4.957,8.274,8.274,0,1,0-16.548,0,8.186,8.186,0,0,0,1.667,4.959Z" transform="translate(-5.625 -2.25)" fill="#b7b7b7"/>
</svg>
