<svg xmlns="http://www.w3.org/2000/svg" width="18.344" height="18.343" viewBox="0 0 18.344 18.343">
  <path id="pen" d="M16.237.709a2.526,2.526,0,0,0-3.57,0l-.894.9L2.262,11.114l-.02.02s0,.01-.01.01c-.01.015-.025.03-.035.045s-.005.005-.005.01-.015.025-.025.04,0,.01-.01.015-.01.025-.015.04,0,0,0,.01L.026,17.652a.5.5,0,0,0,.121.515.508.508,0,0,0,.358.147.6.6,0,0,0,.162-.025l6.341-2.115s0,0,.01,0a.183.183,0,0,0,.045-.02.018.018,0,0,0,.01,0c.015-.01.035-.02.05-.03s.03-.025.045-.035.01-.005.01-.01.015-.01.02-.02L17.6,5.642a2.526,2.526,0,0,0,0-3.569ZM6.846,14.986,3.333,11.473l8.795-8.795,3.514,3.514Zm-4.009-2.58,3.07,3.07L1.3,17.011ZM16.893,4.935l-.535.54L12.844,1.961l.54-.54a1.514,1.514,0,0,1,2.14,0L16.9,2.794a1.519,1.519,0,0,1,0,2.141Zm0,0" transform="translate(0.001 0.029)" fill="#1f1f41"/>
</svg>
